{
  "$schema": "https://docs.renovatebot.com/renovate-schema.json",
  "extends": [
    "config:base",
    ":assignee(pomma89)"
  ],
  "ignorePresets": [
    ":ignoreModulesAndTests"
  ],
  "automerge": true,
  "gitLabAutomerge": true,
  "ignoreDeps": [
    "Microsoft.Extensions.Caching.Abstractions",
    "Microsoft.Extensions.DependencyInjection.Abstractions",
    "Microsoft.Extensions.Logging.Abstractions"
  ],
  "packageRules": [
    {
      "matchPackagePatterns": [
        "^PommaLabs.Salatino"
      ],
      "groupName": "Salatino packages"
    }
  ]
}
